…
``` r
newdataset_2002 <- 
  brfss_smart2010_df |>  
  filter(year == "2002")

answer_2002 <- newdataset_2002 |> 
  count(States) |>  
  filter(n >= 7)
answer_2002
```

    ## # A tibble: 36 × 2
    ##    States     n
    ##    <chr>  <int>
    ##  1 AZ         8
    ##  2 CO        16
    ##  3 CT        28
    ##  4 DE        12
    ##  5 FL        28
    ##  6 GA        12
    ##  7 HI        16
    ##  8 ID         8
    ##  9 IL        12
    ## 10 IN         8
    ## # ℹ 26 more rows

There are 36 states that were visted more than 7 times in 2002

``` r
newdataset_2010 <- 
  brfss_smart2010_df |>  
  filter(year == "2010")

answer_2010 <- newdataset_2010 |> 
  count(States) |>  
  filter(n >= 7)
answer_2010
```

    ## # A tibble: 45 × 2
    ##    States     n
    ##    <chr>  <int>
    ##  1 AL        12
    ##  2 AR        12
    ##  3 AZ        12
    ##  4 CA        48
    ##  5 CO        28
    ##  6 CT        20
    ##  7 DE        12
    ##  8 FL       164
    ##  9 GA        16
    ## 10 HI        16
    ## # ℹ 35 more rows
…
